{
  "build": {
    "class": true,
    "c++14": true,
    "deprecated": true,
    "endif_comment": true,
    "explicit_make_pair": true,
    "forward_decl": true,
    "header_guard": true,
    "include": true,
    "include_alpha": false,
    "include_order": true,
    "include_what_you_use": false,
    "namespaces": true,
    "printf_format": true,
    "storage_class": true
  },
  "legal": {
    "copyright": true
  },
  "readability": {
    "alt_tokens": true,
    "braces": true,
    "casting": true,
    "check": true,
    "constructors": true,
    "fn_size": true,
    "function": true,
    "inheritance": true,
    "multiline_comment": true,
    "multiline_string": true,
    "namespace": false,
    "nolint": true,
    "nul": true,
    "strings": true,
    "todo": true,
    "utf8": true,
    "wui": true
  },
  "runtime": {
    "arrays": true,
    "casting": true,
    "explicit": true,
    "int": false,
    "init": true,
    "invalid_increment": true,
    "member_string_references": true,
    "memset": true,
    "indentation_namespace": false,
    "operator": true,
    "printf": true,
    "printf_format": true,
    "references": true,
    "string": true,
    "threadsafe_fn": true,
    "vlog": true
  },
  "whitespace": {
    "blank_line": true,
    "braces": true,
    "comma": true,
    "comments": true,
    "empty_conditional_body": true,
    "empty_if_body": true,
    "empty_loop_body": true,
    "end_of_line": true,
    "ending_newline": true,
    "forcolon": true,
    "indent": true,
    "line_length": true,
    "newline": true,
    "operators": true,
    "parens": true,
    "semicolon": true,
    "tab": true,
    "todo": true
  }
}
